{
  "regexManagers": [
    {
      "fileMatch": ["APKBUILD$"],
      "matchStrings": [
        "#\\s*renovate:\\s*datasource=(?<datasource>.*?) depName=(?<depName>.*?)( versioning=(?<versioning>.*?))?\\n_?pkgver=(?<currentValue>.*)",
        "#\\s*renovate:\\s*datasource=(?<datasource>.*?) depName=(?<depName>.*?)( versioning=(?<versioning>.*?))?\\s*\\n\\s*(check|make|)depends=\"\\$\\{?(check|make|)depends\\}?\\s*(.*)=(?<currentValue>.*?)(-r99)?\""
      ],
      "versioningTemplate": "{{#if versioning}}{{{versioning}}}{{else}}semver{{/if}}"
    }
  ]
}
