{
  "regexManagers": [
    {
      "fileMatch": ["\\.gitlab-ci\\.yml$"],
      "matchStrings": [
        "PUBLISH_TAG: \"(?<currentValue>.*?)\"\\s*#\\s*renovate:\\s*datasource=(?<datasource>.*?) depName=(?<depName>.*?)( versioning=(?<versioning>.*?))?\\n",
        "\\s*#\\s*renovate:\\s*datasource=(?<datasource>.*?) depName=(?<depName>.*?)( versioning=(?<versioning>.*?))?\\s*-\\s+\"?(?<currentValue>[^\"]*)"
      ],
      "versioningTemplate": "{{#if versioning}}{{{versioning}}}{{else}}semver{{/if}}"
    }
  ]
}
